{
	"basic":{
		"message": "أساسي",
		"description": ""
	},
	"ext":{
		"message": "لواحق الملفات",
		"description": ""
	},
	"app":{
		"message": "تطبيق",
		"description": ""
	},
	"torrent":{
		"message": "تورنت",
		"description": ""
	},
	"cd":{
		"message": "Disk Images",
		"description": ""
	},
	"xls":{
		"message": "مستند إكسل",
		"description": ""
	},
	"img":{
		"message": "صور",
		"description": ""
	},
	"jse":{
		"message": "ملف جافا سكريبت",
		"description": ""
	},
	"xpi":{
		"message": "إضافات موزايلا",
		"description": ""
	},
	"aud":{
		"message": "ملفات موسيقي",
		"description": ""
	},
	"pkg":{
		"message": "Package Files",
		"description": ""
	},
	"pdf":{
		"message": "مستند PDF",
		"description": ""
	},
	"ppt":{
		"message": "عروض بوربوينت",
		"description": ""
	},
	"reg":{
		"message": "ملفات مسجل النظام",
		"description": ""
	},
	"txt":{
		"message": "ملفات نص",
		"description": ""
	},
	"vid":{
		"message": "ملفات فيديو",
		"description": ""
	},
	"doc":{
		"message": "مستند وورد",
		"description": ""
	},
	"zip":{
		"message": "ملفات مضغوطة",
		"description": ""
	},
	"proto":{
		"message": "بروتوكولات",
		"description": ""
	},
	"chat":{
		"message": "Chat Links",
		"description": ""
	},
	"mail":{
		"message": "روابط بريد إلكتروني",
		"description": ""
	},
	"ftp":{
		"message": "مواقع FTP",
		"description": ""
	},
	"jsp":{
		"message": "رابط جافا سكربت",
		"description": ""
	},
	"secure":{
		"message": "مواقع محمية",
		"description": ""
	},
	"unsecure":{
		"message": "مواقع آمنة",
		"description": ""
	},
	"file":{
		"message": "Local Files",
		"description": ""
	},
	"ifDifferent":{
		"message": "إظهار إذا كانت مختلفة فقط",
		"description": ""
	},
	"external":{
		"message": "روابط خارجية",
		"description": ""
	},
	"internal":{
		"message": "روابط داخلية",
		"description": ""
	},
	"domains":{
		"message": "Show domains",
		"description": ""
	},
	"newWindow":{
		"message": "نافذة جديدة",
		"description": ""
	},
	"rss":{
		"message": "RSS Feeds",
		"description": ""
	},
	"offline":{
		"message": "Offline",
		"description": ""
	},
	"cached":{
		"message": "Cached",
		"description": ""
	},
	"display":{
		"message": "عرض",
		"description": ""
	},
	"large":{
		"message": "استخدم أيقونات كبيرة.",
		"description": ""
	},
	"priority":{
		"message": "ترتيب العرض",
		"description": ""
	},
	"number":{
		"message": "عدد الأيقونات التي ستعرض",
		"description": ""
	},
	"offset":{
		"message": "موازنة الأيقونة",
		"description": ""
	},
	"offcache":{
		"message": "Offline/Cached",
		"description": ""
	},
	"inex":{
		"message": "لواحق الملفات",
		"description": ""
	},
	"x":{
		"message": "X",
		"description": ""
	},
	"y":{
		"message": "Y",
		"description": ""
	},
	"boxstyle":{
		"message": "شكل الصندوق",
		"description": ""
	},
	"background":{
		"message": "لون الخلفية",
		"description": ""
	},
	"border":{
		"message": "لون الحدود",
		"description": ""
	},
	"shadow":{
		"message": "Show Shadow",
		"description": ""
	},
	"width":{
		"message": "العرض",
		"description": ""
	},
	"opacity":{
		"message": "الشفافية",
		"description": ""
	},
	"radius":{
		"message": "Border Radius",
		"description": ""
	},
	"px":{
		"message": "px",
		"description": ""
	},
	"percent":{
		"message": "%",
		"description": ""
	},
	"advanced":{
		"message": "متقدم",
		"description": ""
	},
	"path":{
		"message": "مسار الأيقونة",
		"description": ""
	}
}
