{
	"basic":{
		"message": "Základní",
		"description": ""
	},
	"ext":{
		"message": "Přípony souborů",
		"description": ""
	},
	"app":{
		"message": "Aplikace",
		"description": ""
	},
	"torrent":{
		"message": "BitTorrenty",
		"description": ""
	},
	"cd":{
		"message": "Disk Images",
		"description": ""
	},
	"xls":{
		"message": "Dokumenty Excelu",
		"description": ""
	},
	"img":{
		"message": "Obrázky",
		"description": ""
	},
	"jse":{
		"message": "Soubory Javascriptu",
		"description": ""
	},
	"xpi":{
		"message": "Rozšíření Mozilly",
		"description": ""
	},
	"aud":{
		"message": "Hudební soubory",
		"description": ""
	},
	"pkg":{
		"message": "Package Files",
		"description": ""
	},
	"pdf":{
		"message": "Dokumenty PDF",
		"description": ""
	},
	"ppt":{
		"message": "Prezentace v PowerPointu",
		"description": ""
	},
	"reg":{
		"message": "Soubory RegEditu",
		"description": ""
	},
	"txt":{
		"message": "Textové dokumenty",
		"description": ""
	},
	"vid":{
		"message": "Video soubory",
		"description": ""
	},
	"doc":{
		"message": "Dokumenty Wordu",
		"description": ""
	},
	"zip":{
		"message": "Archivy ZIP",
		"description": ""
	},
	"proto":{
		"message": "Protokoly",
		"description": ""
	},
	"chat":{
		"message": "Chat Links",
		"description": ""
	},
	"mail":{
		"message": "E-mailové odkazy",
		"description": ""
	},
	"ftp":{
		"message": "Servery FTP",
		"description": ""
	},
	"jsp":{
		"message": "Odkazy Javascriptu",
		"description": ""
	},
	"secure":{
		"message": "Zabezpečené stránky",
		"description": ""
	},
	"unsecure":{
		"message": "Nezabezpečené stránky",
		"description": ""
	},
	"file":{
		"message": "Local Files",
		"description": ""
	},
	"ifDifferent":{
		"message": "Zobrazit pouze v případě rozdílu",
		"description": ""
	},
	"external":{
		"message": "Vnější odkazy",
		"description": ""
	},
	"internal":{
		"message": "Vnitřní odkazy",
		"description": ""
	},
	"domains":{
		"message": "Show domains",
		"description": ""
	},
	"newWindow":{
		"message": "Nová okna",
		"description": ""
	},
	"rss":{
		"message": "RSS Feeds",
		"description": ""
	},
	"offline":{
		"message": "Offline",
		"description": ""
	},
	"cached":{
		"message": "Cached",
		"description": ""
	},
	"display":{
		"message": "Zobrazit",
		"description": ""
	},
	"large":{
		"message": "Použít velké ikony",
		"description": ""
	},
	"priority":{
		"message": "Pořadí zobrazení",
		"description": ""
	},
	"number":{
		"message": "Počet zobrazených ikon",
		"description": ""
	},
	"offset":{
		"message": "Odsazení ikony",
		"description": ""
	},
	"offcache":{
		"message": "Offline/Cached",
		"description": ""
	},
	"inex":{
		"message": "Přípony souborů",
		"description": ""
	},
	"x":{
		"message": "X",
		"description": ""
	},
	"y":{
		"message": "Y",
		"description": ""
	},
	"boxstyle":{
		"message": "Styl orámování",
		"description": ""
	},
	"background":{
		"message": "Barva pozadí",
		"description": ""
	},
	"border":{
		"message": "Barva ohraničení",
		"description": ""
	},
	"shadow":{
		"message": "Show Shadow",
		"description": ""
	},
	"width":{
		"message": "Šířka",
		"description": ""
	},
	"opacity":{
		"message": "Opacita",
		"description": ""
	},
	"radius":{
		"message": "Border Radius",
		"description": ""
	},
	"px":{
		"message": "px",
		"description": ""
	},
	"percent":{
		"message": "%",
		"description": ""
	},
	"advanced":{
		"message": "Pokročilé",
		"description": ""
	},
	"path":{
		"message": "Cesty k ikonám",
		"description": ""
	}
}
